[
  {
    "text": "salut c'est Aziz",
    "entities": [
      {
        "start": 12,
        "end": 16,
        "value": "Aziz",
        "entity": "Person"
      }
    ],
    "predicted_entities": []
  },
  {
    "text": "what is the current status of all the existing technologies 2g3g 4g",
    "entities": [
      {
        "start": 60,
        "end": 62,
        "value": "2g",
        "entity": "Tech2g"
      },
      {
        "start": 62,
        "end": 64,
        "value": "3g",
        "entity": "Tech3g"
      },
      {
        "start": 65,
        "end": 67,
        "value": "4g",
        "entity": "Tech4g"
      }
    ],
    "predicted_entities": [
      {
        "entity": "Tech2g",
        "start": 63,
        "end": 64,
        "confidence_entity": 0.6290426254272461,
        "value": "g",
        "extractor": "DIETClassifier"
      },
      {
        "entity": "Tech4g",
        "start": 66,
        "end": 67,
        "confidence_entity": 0.4949814975261688,
        "value": "g",
        "extractor": "DIETClassifier"
      },
      {
        "entity": "Tech4g",
        "start": 65,
        "end": 67,
        "confidence_entity": 0.6292698524413045,
        "value": "4g",
        "extractor": "CRFEntityExtractor",
        "processors": [
          "EntitySynonymMapper"
        ]
      }
    ]
  },
  {
    "text": "I would like a time extension of a 10 minutes",
    "entities": [
      {
        "start": 35,
        "end": 37,
        "value": "10",
        "entity": "time"
      }
    ],
    "predicted_entities": []
  },
  {
    "text": "I get 153 mb  avr",
    "entities": [
      {
        "start": 6,
        "end": 13,
        "value": "153 mb ",
        "entity": "throughput",
        "role": "throughput_DL"
      }
    ],
    "predicted_entities": [
      {
        "entity": "throughput",
        "start": 6,
        "end": 12,
        "confidence_entity": 0.6209604740142822,
        "role": "throughput_DL",
        "confidence_role": 0.5882941484451294,
        "value": "153 mb",
        "extractor": "DIETClassifier"
      },
      {
        "entity": "throughput",
        "start": 14,
        "end": 17,
        "confidence_entity": 0.9703795313835144,
        "role": "throughput_ca",
        "confidence_role": 0.7750247716903687,
        "value": "avr",
        "extractor": "DIETClassifier"
      }
    ]
  },
  {
    "text": "DL bad 10 sector 1",
    "entities": [
      {
        "start": 7,
        "end": 9,
        "value": "10",
        "entity": "throughput",
        "role": "throughput_DL"
      }
    ],
    "predicted_entities": [
      {
        "entity": "throughput",
        "start": 7,
        "end": 9,
        "confidence_entity": 0.6137540936470032,
        "role": "throughput_DL",
        "confidence_role": 0.5291928648948669,
        "value": "10",
        "extractor": "DIETClassifier"
      },
      {
        "entity": "throughput",
        "start": 17,
        "end": 18,
        "confidence_entity": 0.6380509734153748,
        "role": "throughput_DL",
        "confidence_role": 0.36729589104652405,
        "value": "1",
        "extractor": "DIETClassifier"
      },
      {
        "entity": "throughput",
        "start": 17,
        "end": 18,
        "confidence_entity": 0.5081304958101157,
        "value": "1",
        "extractor": "CRFEntityExtractor"
      }
    ]
  },
  {
    "text": "hi it's me the drive tester Fatah",
    "entities": [
      {
        "start": 28,
        "end": 33,
        "value": "Fatah",
        "entity": "Person"
      }
    ],
    "predicted_entities": []
  },
  {
    "text": "Avr ca 75",
    "entities": [
      {
        "start": 0,
        "end": 10,
        "value": " Avr ca 75",
        "entity": "throughput",
        "role": "throughput_ca"
      }
    ],
    "predicted_entities": [
      {
        "entity": "throughput",
        "start": 0,
        "end": 3,
        "confidence_entity": 0.8750241994857788,
        "role": "throughput_ca",
        "confidence_role": 0.9093953967094421,
        "value": "Avr",
        "extractor": "DIETClassifier"
      },
      {
        "entity": "throughput",
        "start": 4,
        "end": 6,
        "confidence_entity": 0.7264587879180908,
        "role": "throughput_ca",
        "confidence_role": 0.8830663561820984,
        "value": "ca",
        "extractor": "DIETClassifier"
      },
      {
        "entity": "throughput",
        "start": 7,
        "end": 9,
        "confidence_entity": 0.6636815071105957,
        "role": "throughput_DL",
        "confidence_role": 0.4471074342727661,
        "value": "75",
        "extractor": "DIETClassifier"
      },
      {
        "entity": "throughput",
        "start": 7,
        "end": 9,
        "confidence_entity": 0.6122574339765459,
        "role": "throughput_DL",
        "confidence_role": 0.4919638779509622,
        "value": "75",
        "extractor": "CRFEntityExtractor"
      }
    ]
  },
  {
    "text": "salam it's Djamila",
    "entities": [
      {
        "start": 11,
        "end": 18,
        "value": "Djamila",
        "entity": "Person"
      }
    ],
    "predicted_entities": []
  },
  {
    "text": "(Sector 2)[Sector] of 74156, please lock.",
    "entities": [
      {
        "start": 22,
        "end": 27,
        "value": "74156",
        "entity": "code_site"
      }
    ],
    "predicted_entities": [
      {
        "entity": "code_site",
        "start": 22,
        "end": 27,
        "confidence_entity": 0.7352054864250915,
        "value": "74156",
        "extractor": "CRFEntityExtractor"
      }
    ]
  },
  {
    "text": "check state for 2g only",
    "entities": [
      {
        "start": 16,
        "end": 18,
        "value": "2g",
        "entity": "Tech2g"
      }
    ],
    "predicted_entities": [
      {
        "entity": "Tech2g",
        "start": 17,
        "end": 18,
        "confidence_entity": 0.33146554231643677,
        "value": "g",
        "extractor": "DIETClassifier"
      }
    ]
  },
  {
    "text": "provide status of 3g",
    "entities": [
      {
        "start": 18,
        "end": 20,
        "value": "3g",
        "entity": "Tech3g"
      }
    ],
    "predicted_entities": [
      {
        "entity": "throughput",
        "start": 18,
        "end": 20,
        "confidence_entity": 0.3756638169288635,
        "value": "3g",
        "extractor": "DIETClassifier",
        "processors": [
          "EntitySynonymMapper"
        ]
      }
    ]
  },
  {
    "text": "5 mins please",
    "entities": [
      {
        "start": 0,
        "end": 1,
        "value": "5",
        "entity": "time"
      }
    ],
    "predicted_entities": [
      {
        "entity": "throughput",
        "start": 0,
        "end": 1,
        "confidence_entity": 0.7275117039680481,
        "role": "throughput_DL",
        "confidence_role": 0.49351775646209717,
        "value": "5",
        "extractor": "DIETClassifier"
      }
    ]
  },
  {
    "text": "Ca avr 60 mb",
    "entities": [
      {
        "start": 0,
        "end": 12,
        "value": "Ca avr 60 mb",
        "entity": "throughput",
        "role": "throughput_ca"
      }
    ],
    "predicted_entities": []
  },
  {
    "text": "i have a problem with ca Max throughput 35",
    "entities": [
      {
        "start": 29,
        "end": 42,
        "value": "throughput 35",
        "entity": "throughput",
        "role": "throughput_ca"
      }
    ],
    "predicted_entities": [
      {
        "entity": "throughput",
        "start": 40,
        "end": 42,
        "confidence_entity": 0.8376737236976624,
        "role": "throughput_DL",
        "confidence_role": 0.6201984882354736,
        "value": "35",
        "extractor": "DIETClassifier"
      },
      {
        "entity": "throughput",
        "start": 40,
        "end": 42,
        "confidence_entity": 0.7971305498424066,
        "role": "throughput_DL",
        "confidence_role": 0.6450425919714327,
        "value": "35",
        "extractor": "CRFEntityExtractor"
      }
    ]
  },
  {
    "text": "i have a problem with UL",
    "entities": [
      {
        "start": 22,
        "end": 24,
        "value": "UL",
        "entity": "throughput",
        "role": "throughput_UL"
      }
    ],
    "predicted_entities": []
  },
  {
    "text": "hey it's Amin",
    "entities": [
      {
        "start": 9,
        "end": 13,
        "value": "Amin",
        "entity": "Person"
      }
    ],
    "predicted_entities": []
  },
  {
    "text": "can you lock G1800",
    "entities": [
      {
        "start": 13,
        "end": 18,
        "value": "G1800",
        "entity": "Tech2g"
      }
    ],
    "predicted_entities": [
      {
        "entity": "Tech4g",
        "start": 13,
        "end": 18,
        "confidence_entity": 0.9272651672363281,
        "value": "G1800",
        "extractor": "DIETClassifier"
      }
    ]
  },
  {
    "text": "can you lock g1800",
    "entities": [
      {
        "start": 13,
        "end": 18,
        "value": "g1800",
        "entity": "Tech2g"
      }
    ],
    "predicted_entities": [
      {
        "entity": "Tech4g",
        "start": 13,
        "end": 18,
        "confidence_entity": 0.9272651672363281,
        "value": "g1800",
        "extractor": "DIETClassifier"
      }
    ]
  },
  {
    "text": "tell me what is state of 4g",
    "entities": [
      {
        "start": 25,
        "end": 27,
        "value": "4g",
        "entity": "Tech4g"
      }
    ],
    "predicted_entities": [
      {
        "entity": "Tech4g",
        "start": 26,
        "end": 27,
        "confidence_entity": 0.41166791319847107,
        "value": "g",
        "extractor": "DIETClassifier"
      },
      {
        "entity": "Tech4g",
        "start": 25,
        "end": 27,
        "confidence_entity": 0.6279773547042746,
        "value": "4g",
        "extractor": "CRFEntityExtractor",
        "processors": [
          "EntitySynonymMapper"
        ]
      }
    ]
  },
  {
    "text": "i need more 15mns",
    "entities": [
      {
        "start": 12,
        "end": 14,
        "value": "15",
        "entity": "time"
      }
    ],
    "predicted_entities": []
  },
  {
    "text": "Could I have 20 extra minutes to finish?",
    "entities": [
      {
        "start": 13,
        "end": 15,
        "value": "20",
        "entity": "time"
      }
    ],
    "predicted_entities": []
  },
  {
    "text": "Dynamic DL 30 is very low",
    "entities": [
      {
        "start": 11,
        "end": 13,
        "value": "30",
        "entity": "throughput",
        "role": "throughput_dyn"
      }
    ],
    "predicted_entities": [
      {
        "entity": "throughput",
        "start": 11,
        "end": 13,
        "confidence_entity": 0.5489252805709839,
        "role": "throughput_DL",
        "confidence_role": 0.5208619236946106,
        "value": "30",
        "extractor": "DIETClassifier",
        "processors": [
          "EntitySynonymMapper"
        ]
      }
    ]
  },
  {
    "text": "Dynamic 20",
    "entities": [
      {
        "start": 0,
        "end": 10,
        "value": "Dynamic 20",
        "entity": "throughput",
        "role": "throughput_dyn"
      }
    ],
    "predicted_entities": [
      {
        "entity": "throughput",
        "start": 8,
        "end": 10,
        "confidence_entity": 0.7310306429862976,
        "role": "throughput_DL",
        "confidence_role": 0.6302768588066101,
        "value": "20",
        "extractor": "DIETClassifier"
      },
      {
        "entity": "throughput",
        "start": 8,
        "end": 10,
        "confidence_entity": 0.3924129293241298,
        "value": "20",
        "extractor": "CRFEntityExtractor"
      }
    ]
  },
  {
    "text": "Low Thrghpt DL average 50 Mbs in both band",
    "entities": [
      {
        "start": 12,
        "end": 29,
        "value": "DL average 50 Mbs",
        "entity": "throughput",
        "role": "throughput_DL"
      }
    ],
    "predicted_entities": [
      {
        "entity": "throughput",
        "start": 23,
        "end": 25,
        "confidence_entity": 0.6030206680297852,
        "role": "throughput_DL",
        "confidence_role": 0.5983509421348572,
        "value": "50",
        "extractor": "DIETClassifier",
        "processors": [
          "EntitySynonymMapper"
        ]
      }
    ]
  },
  {
    "text": "hello i'm Abdou",
    "entities": [
      {
        "start": 10,
        "end": 15,
        "value": "Abdou",
        "entity": "Person"
      }
    ],
    "predicted_entities": []
  },
  {
    "text": "check the status of the network 2G for me",
    "entities": [
      {
        "start": 32,
        "end": 34,
        "value": "2G",
        "entity": "Tech2g"
      }
    ],
    "predicted_entities": [
      {
        "entity": "Tech2g",
        "start": 33,
        "end": 34,
        "confidence_entity": 0.3727417588233948,
        "value": "G",
        "extractor": "DIETClassifier"
      },
      {
        "entity": "Tech2g",
        "start": 32,
        "end": 34,
        "confidence_entity": 0.6203225491707264,
        "value": "2g",
        "extractor": "CRFEntityExtractor",
        "processors": [
          "EntitySynonymMapper"
        ]
      }
    ]
  },
  {
    "text": "low ca 40",
    "entities": [
      {
        "start": 7,
        "end": 9,
        "value": "40",
        "entity": "throughput",
        "role": "throughput_ca"
      }
    ],
    "predicted_entities": [
      {
        "entity": "throughput",
        "start": 4,
        "end": 6,
        "confidence_entity": 0.5170554518699646,
        "role": "throughput_ca",
        "confidence_role": 0.8053335547447205,
        "value": "ca",
        "extractor": "DIETClassifier"
      },
      {
        "entity": "throughput",
        "start": 7,
        "end": 9,
        "confidence_entity": 0.5284441113471985,
        "role": "throughput_DL",
        "confidence_role": 0.7311894297599792,
        "value": "40",
        "extractor": "DIETClassifier"
      }
    ]
  },
  {
    "text": "UL bad results 50",
    "entities": [
      {
        "start": 15,
        "end": 17,
        "value": "50",
        "entity": "throughput",
        "role": "throughput_UL"
      }
    ],
    "predicted_entities": [
      {
        "entity": "throughput",
        "start": 15,
        "end": 17,
        "confidence_entity": 0.6042571067810059,
        "role": "throughput_DL",
        "confidence_role": 0.6711863279342651,
        "value": "50",
        "extractor": "DIETClassifier"
      }
    ]
  }
]