[
  {
    "text": "hello i'm Abdou",
    "entities": [
      {
        "start": 10,
        "end": 15,
        "value": "Abdou",
        "entity": "Person"
      }
    ],
    "predicted_entities": []
  },
  {
    "text": "hi it's me the drive tester Fatah",
    "entities": [
      {
        "start": 28,
        "end": 33,
        "value": "Fatah",
        "entity": "Person"
      }
    ],
    "predicted_entities": []
  },
  {
    "text": "not a problem",
    "entities": [],
    "predicted_entities": [
      {
        "entity": "throughput",
        "start": 6,
        "end": 13,
        "confidence_entity": 0.950266420841217,
        "role": "throughput_UL",
        "confidence_role": 0.9577818512916565,
        "value": "problem",
        "extractor": "DIETClassifier"
      }
    ]
  },
  {
    "text": "(Sector 2)[Sector] of 74156, please lock.",
    "entities": [
      {
        "start": 22,
        "end": 27,
        "value": "74156",
        "entity": "code_site"
      }
    ],
    "predicted_entities": [
      {
        "entity": "time",
        "start": 22,
        "end": 27,
        "confidence_entity": 0.45294514298439026,
        "value": "74156",
        "extractor": "DIETClassifier"
      }
    ]
  },
  {
    "text": "please check sector 1 locked ?",
    "entities": [
      {
        "start": 13,
        "end": 21,
        "value": "sector 1",
        "entity": "Sector"
      }
    ],
    "predicted_entities": [
      {
        "entity": "time",
        "start": 20,
        "end": 21,
        "confidence_entity": 0.4565950334072113,
        "value": "1",
        "extractor": "DIETClassifier"
      }
    ]
  },
  {
    "text": "can you confirm sector 2 ?",
    "entities": [
      {
        "start": 16,
        "end": 24,
        "value": "sector 2",
        "entity": "Sector"
      }
    ],
    "predicted_entities": [
      {
        "entity": "time",
        "start": 23,
        "end": 24,
        "confidence_entity": 0.35190343856811523,
        "value": "2",
        "extractor": "DIETClassifier"
      }
    ]
  },
  {
    "text": "5 mins please",
    "entities": [
      {
        "start": 0,
        "end": 1,
        "value": "5",
        "entity": "time"
      }
    ],
    "predicted_entities": []
  },
  {
    "text": "still low",
    "entities": [],
    "predicted_entities": [
      {
        "entity": "throughput",
        "start": 6,
        "end": 9,
        "confidence_entity": 0.8368824124336243,
        "role": "throughput_UL",
        "confidence_role": 0.3238873779773712,
        "value": "low",
        "extractor": "DIETClassifier"
      }
    ]
  },
  {
    "text": "i had throughput problem",
    "entities": [
      {
        "start": 6,
        "end": 24,
        "value": "throughput problem",
        "entity": "throughput",
        "role": "throughput_DL"
      }
    ],
    "predicted_entities": [
      {
        "entity": "throughput",
        "start": 17,
        "end": 24,
        "confidence_entity": 0.9435969591140747,
        "role": "throughput_UL",
        "confidence_role": 0.9568157196044922,
        "value": "problem",
        "extractor": "DIETClassifier"
      }
    ]
  },
  {
    "text": "I get 153 mb avr",
    "entities": [
      {
        "start": 6,
        "end": 16,
        "value": "153 mb avr",
        "entity": "throughput",
        "role": "throughput_DL"
      }
    ],
    "predicted_entities": [
      {
        "entity": "time",
        "start": 6,
        "end": 9,
        "confidence_entity": 0.4998733401298523,
        "value": "153",
        "extractor": "DIETClassifier"
      },
      {
        "entity": "throughput",
        "start": 13,
        "end": 16,
        "confidence_entity": 0.8707167506217957,
        "role": "throughput_ca",
        "confidence_role": 0.7968515753746033,
        "value": "avr",
        "extractor": "DIETClassifier"
      }
    ]
  },
  {
    "text": "Ca avr 60 mb",
    "entities": [
      {
        "start": 0,
        "end": 12,
        "value": "Ca avr 60 mb",
        "entity": "throughput",
        "role": "throughput_ca"
      }
    ],
    "predicted_entities": [
      {
        "entity": "throughput",
        "start": 0,
        "end": 2,
        "confidence_entity": 0.5138108134269714,
        "role": "throughput_ca",
        "confidence_role": 0.6781612634658813,
        "value": "Ca",
        "extractor": "DIETClassifier"
      },
      {
        "entity": "throughput",
        "start": 3,
        "end": 6,
        "confidence_entity": 0.9571287631988525,
        "role": "throughput_ca",
        "confidence_role": 0.7318665981292725,
        "value": "avr",
        "extractor": "DIETClassifier"
      },
      {
        "entity": "time",
        "start": 7,
        "end": 9,
        "confidence_entity": 0.3152958154678345,
        "role": "throughput_ca",
        "confidence_role": 0.3200099468231201,
        "value": "60",
        "extractor": "DIETClassifier"
      },
      {
        "entity": "throughput",
        "start": 10,
        "end": 12,
        "confidence_entity": 0.9650611877441406,
        "role": "throughput_DL",
        "confidence_role": 0.7836291193962097,
        "value": "mb",
        "extractor": "DIETClassifier"
      }
    ]
  },
  {
    "text": "i have a problem with ca Max throughput 35",
    "entities": [
      {
        "start": 22,
        "end": 42,
        "value": "ca Max throughput 35",
        "entity": "throughput",
        "role": "throughput_ca"
      }
    ],
    "predicted_entities": [
      {
        "entity": "throughput",
        "start": 9,
        "end": 16,
        "confidence_entity": 0.9627506732940674,
        "role": "throughput_UL",
        "confidence_role": 0.9329820871353149,
        "value": "problem",
        "extractor": "DIETClassifier"
      },
      {
        "entity": "time",
        "start": 40,
        "end": 42,
        "confidence_entity": 0.3755316436290741,
        "value": "35",
        "extractor": "DIETClassifier"
      }
    ]
  },
  {
    "text": "DL bad all sectors",
    "entities": [
      {
        "start": 0,
        "end": 6,
        "value": "DL bad",
        "entity": "throughput",
        "role": "throughput_DL"
      }
    ],
    "predicted_entities": []
  },
  {
    "text": "DL bad sector 1",
    "entities": [
      {
        "start": 0,
        "end": 6,
        "value": "DL bad",
        "entity": "throughput",
        "role": "throughput_DL"
      }
    ],
    "predicted_entities": [
      {
        "entity": "throughput",
        "start": 14,
        "end": 15,
        "confidence_entity": 0.3137785792350769,
        "value": "1",
        "extractor": "DIETClassifier"
      }
    ]
  },
  {
    "text": "Dynamic DL 30",
    "entities": [
      {
        "start": 0,
        "end": 13,
        "value": "Dynamic DL 30",
        "entity": "throughput",
        "role": "throughput_dyn"
      }
    ],
    "predicted_entities": [
      {
        "entity": "throughput",
        "start": 8,
        "end": 10,
        "confidence_entity": 0.7794026732444763,
        "role": "throughput_DL",
        "confidence_role": 0.8598669171333313,
        "value": "DL",
        "extractor": "DIETClassifier"
      },
      {
        "entity": "throughput",
        "start": 11,
        "end": 13,
        "confidence_entity": 0.5287682414054871,
        "role": "throughput_DL",
        "confidence_role": 0.5558498501777649,
        "value": "30",
        "extractor": "DIETClassifier",
        "processors": [
          "EntitySynonymMapper"
        ]
      }
    ]
  },
  {
    "text": "UL good results",
    "entities": [
      {
        "start": 0,
        "end": 15,
        "value": "UL good results",
        "entity": "throughput",
        "role": "throughput_UL"
      }
    ],
    "predicted_entities": [
      {
        "entity": "throughput",
        "start": 0,
        "end": 2,
        "confidence_entity": 0.8743423819541931,
        "role": "throughput_UL",
        "confidence_role": 0.9192472696304321,
        "value": "UL",
        "extractor": "DIETClassifier"
      }
    ]
  },
  {
    "text": "All sectors DL bad",
    "entities": [
      {
        "start": 12,
        "end": 18,
        "value": "DL bad",
        "entity": "throughput",
        "role": "throughput_DL"
      }
    ],
    "predicted_entities": []
  },
  {
    "text": "Dynamic 20",
    "entities": [
      {
        "start": 0,
        "end": 10,
        "value": "Dynamic 20",
        "entity": "throughput",
        "role": "throughput_dyn"
      }
    ],
    "predicted_entities": [
      {
        "entity": "throughput",
        "start": 8,
        "end": 10,
        "confidence_entity": 0.5360087752342224,
        "role": "throughput_DL",
        "confidence_role": 0.6265647411346436,
        "value": "20",
        "extractor": "DIETClassifier",
        "processors": [
          "EntitySynonymMapper"
        ]
      }
    ]
  },
  {
    "text": "what is the current status of all the existing technologies 2g3g 4g",
    "entities": [
      {
        "start": 60,
        "end": 62,
        "value": "2g",
        "entity": "Tech2g"
      },
      {
        "start": 62,
        "end": 64,
        "value": "3g",
        "entity": "Tech3g"
      },
      {
        "start": 65,
        "end": 67,
        "value": "4g",
        "entity": "Tech4g"
      }
    ],
    "predicted_entities": []
  },
  {
    "text": "bonjour je suis Abdou",
    "entities": [
      {
        "start": 16,
        "end": 21,
        "value": "Abdou",
        "entity": "Person"
      }
    ],
    "predicted_entities": []
  },
  {
    "text": "salut c'est moi le drive testeur Fatah",
    "entities": [
      {
        "start": 33,
        "end": 38,
        "value": "Fatah",
        "entity": "Person"
      }
    ],
    "predicted_entities": []
  },
  {
    "text": "salam c'est Djamila",
    "entities": [],
    "predicted_entities": [
      {
        "entity": "Person",
        "start": 12,
        "end": 19,
        "confidence_entity": 0.9908992052078247,
        "value": "Djamila",
        "extractor": "DIETClassifier",
        "processors": [
          "EntitySynonymMapper"
        ]
      }
    ]
  },
  {
    "text": "salut c'est Aziz",
    "entities": [],
    "predicted_entities": [
      {
        "entity": "Person",
        "start": 12,
        "end": 16,
        "confidence_entity": 0.9927912950515747,
        "value": "Aziz",
        "extractor": "DIETClassifier",
        "processors": [
          "EntitySynonymMapper"
        ]
      }
    ]
  },
  {
    "text": "salam it's Djamila",
    "entities": [
      {
        "start": 11,
        "end": 18,
        "value": "Djamila",
        "entity": "Person"
      }
    ],
    "predicted_entities": []
  },
  {
    "text": "salut c'est Aziz",
    "entities": [
      {
        "start": 12,
        "end": 16,
        "value": "Aziz",
        "entity": "Person"
      }
    ],
    "predicted_entities": []
  },
  {
    "text": "conditions of Rsrp and Rsrq aren't good",
    "entities": [
      {
        "start": 14,
        "end": 18,
        "value": "Rsrp",
        "entity": "conditions"
      },
      {
        "start": 23,
        "end": 27,
        "value": "Rsrq",
        "entity": "conditions"
      }
    ],
    "predicted_entities": [
      {
        "entity": "conditions",
        "start": 14,
        "end": 18,
        "confidence_entity": 0.9801305532455444,
        "value": "RSRP",
        "extractor": "DIETClassifier",
        "processors": [
          "EntitySynonymMapper"
        ]
      }
    ]
  },
  {
    "text": "is L2100 locked ?",
    "entities": [
      {
        "start": 3,
        "end": 8,
        "value": "L2100",
        "entity": "Tech3g"
      }
    ],
    "predicted_entities": [
      {
        "entity": "Tech4g",
        "start": 3,
        "end": 8,
        "confidence_entity": 0.9934824705123901,
        "value": "l2100",
        "extractor": "DIETClassifier",
        "processors": [
          "EntitySynonymMapper"
        ]
      }
    ]
  },
  {
    "text": "i need more 15mns",
    "entities": [
      {
        "start": 12,
        "end": 14,
        "value": "15",
        "entity": "time"
      }
    ],
    "predicted_entities": []
  },
  {
    "text": "I would like a time extension of a 10 minutes",
    "entities": [
      {
        "start": 35,
        "end": 37,
        "value": "10",
        "entity": "time"
      }
    ],
    "predicted_entities": []
  },
  {
    "text": "Could I have 20 extra minutes to finish?",
    "entities": [
      {
        "start": 13,
        "end": 15,
        "value": "20",
        "entity": "time"
      }
    ],
    "predicted_entities": []
  },
  {
    "text": "site 411097L",
    "entities": [
      {
        "start": 5,
        "end": 12,
        "value": "411097L",
        "entity": "code_site"
      }
    ],
    "predicted_entities": [
      {
        "entity": "Sector",
        "start": 5,
        "end": 12,
        "confidence_entity": 0.3504135310649872,
        "value": "411097L",
        "extractor": "DIETClassifier"
      }
    ]
  },
  {
    "text": "Same result",
    "entities": [],
    "predicted_entities": [
      {
        "entity": "throughput",
        "start": 5,
        "end": 11,
        "confidence_entity": 0.9658031463623047,
        "role": "throughput_UL",
        "confidence_role": 0.894795835018158,
        "value": "result",
        "extractor": "DIETClassifier"
      }
    ]
  },
  {
    "text": "low ca",
    "entities": [
      {
        "start": 0,
        "end": 6,
        "value": "low ca",
        "entity": "throughput",
        "role": "throughput_ca"
      }
    ],
    "predicted_entities": []
  },
  {
    "text": "Low throughput DL",
    "entities": [
      {
        "start": 0,
        "end": 17,
        "value": "Low throughput DL",
        "entity": "throughput",
        "role": "throughput_DL"
      }
    ],
    "predicted_entities": [
      {
        "entity": "throughput",
        "start": 15,
        "end": 17,
        "confidence_entity": 0.8558988571166992,
        "role": "throughput_DL",
        "confidence_role": 0.8484717011451721,
        "value": "DL",
        "extractor": "DIETClassifier"
      }
    ]
  },
  {
    "text": "Low throughput UL",
    "entities": [
      {
        "start": 0,
        "end": 17,
        "value": "Low throughput UL",
        "entity": "throughput",
        "role": "throughput_UL"
      }
    ],
    "predicted_entities": [
      {
        "entity": "throughput",
        "start": 15,
        "end": 17,
        "confidence_entity": 0.876703143119812,
        "role": "throughput_UL",
        "confidence_role": 0.9481657147407532,
        "value": "UL",
        "extractor": "DIETClassifier"
      }
    ]
  },
  {
    "text": "i have problem with UL",
    "entities": [
      {
        "start": 7,
        "end": 22,
        "value": "problem with UL",
        "entity": "throughput",
        "role": "throughput_UL"
      }
    ],
    "predicted_entities": [
      {
        "entity": "throughput",
        "start": 20,
        "end": 22,
        "confidence_entity": 0.8973364233970642,
        "role": "throughput_UL",
        "confidence_role": 0.9396710395812988,
        "value": "UL",
        "extractor": "DIETClassifier"
      }
    ]
  },
  {
    "text": "Average 11",
    "entities": [
      {
        "start": 0,
        "end": 10,
        "value": "Average 11",
        "entity": "throughput",
        "role": "throughput_DL"
      }
    ],
    "predicted_entities": [
      {
        "entity": "throughput",
        "start": 8,
        "end": 10,
        "confidence_entity": 0.5949520468711853,
        "role": "throughput_dyn",
        "confidence_role": 0.5936291813850403,
        "value": "11",
        "extractor": "DIETClassifier"
      }
    ]
  },
  {
    "text": "S3 30",
    "entities": [
      {
        "start": 3,
        "end": 5,
        "value": "30",
        "entity": "throughput",
        "role": "throughput_DL"
      }
    ],
    "predicted_entities": [
      {
        "entity": "Sector",
        "start": 0,
        "end": 2,
        "confidence_entity": 0.9904012680053711,
        "value": "S3",
        "extractor": "DIETClassifier",
        "processors": [
          "EntitySynonymMapper"
        ]
      },
      {
        "entity": "throughput",
        "start": 3,
        "end": 5,
        "confidence_entity": 0.7402286529541016,
        "role": "throughput_dyn",
        "confidence_role": 0.6491312980651855,
        "value": "30",
        "extractor": "DIETClassifier"
      }
    ]
  },
  {
    "text": "S1 25",
    "entities": [
      {
        "start": 3,
        "end": 5,
        "value": "25",
        "entity": "throughput",
        "role": "throughput_DL"
      }
    ],
    "predicted_entities": [
      {
        "entity": "Sector",
        "start": 0,
        "end": 2,
        "confidence_entity": 0.9927494525909424,
        "value": "S1",
        "extractor": "DIETClassifier",
        "processors": [
          "EntitySynonymMapper"
        ]
      },
      {
        "entity": "throughput",
        "start": 3,
        "end": 5,
        "confidence_entity": 0.7322962880134583,
        "role": "throughput_dyn",
        "confidence_role": 0.6373389363288879,
        "value": "25",
        "extractor": "DIETClassifier"
      }
    ]
  },
  {
    "text": "Low Thrghpt DL average 50 Mbs in both band",
    "entities": [
      {
        "start": 12,
        "end": 29,
        "value": "DL average 50 Mbs",
        "entity": "throughput",
        "role": "throughput_DL"
      }
    ],
    "predicted_entities": [
      {
        "entity": "throughput",
        "start": 12,
        "end": 14,
        "confidence_entity": 0.5489924550056458,
        "role": "throughput_DL",
        "confidence_role": 0.5730981826782227,
        "value": "DL",
        "extractor": "DIETClassifier"
      },
      {
        "entity": "throughput",
        "start": 23,
        "end": 25,
        "confidence_entity": 0.23560303449630737,
        "value": "50",
        "extractor": "DIETClassifier"
      },
      {
        "entity": "throughput",
        "start": 26,
        "end": 29,
        "confidence_entity": 0.8962006568908691,
        "role": "throughput_ca",
        "confidence_role": 0.43046197295188904,
        "value": "Mbs",
        "extractor": "DIETClassifier"
      }
    ]
  },
  {
    "text": "throughput dl better",
    "entities": [],
    "predicted_entities": [
      {
        "entity": "throughput",
        "start": 11,
        "end": 13,
        "confidence_entity": 0.9265925288200378,
        "role": "throughput_DL",
        "confidence_role": 0.9553387761116028,
        "value": "dl",
        "extractor": "DIETClassifier"
      }
    ]
  },
  {
    "text": "check the status of the network 2G for me",
    "entities": [
      {
        "start": 32,
        "end": 34,
        "value": "2G",
        "entity": "Tech2g"
      }
    ],
    "predicted_entities": []
  }
]