{
  "throughput.throughput_UL": {
    "precision": 0.0,
    "recall": 0.0,
    "f1-score": 0.0,
    "support": 3,
    "confused_with": {
      "throughput.throughput_DL": 1,
      "throughput": 1
    }
  },
  "code_site": {
    "precision": 1.0,
    "recall": 0.9411764705882353,
    "f1-score": 0.9696969696969697,
    "support": 17,
    "confused_with": {
      "throughput": 1
    }
  },
  "Tech2g": {
    "precision": 0.9,
    "recall": 0.6,
    "f1-score": 0.7200000000000001,
    "support": 15,
    "confused_with": {
      "throughput": 6
    }
  },
  "Sector": {
    "precision": 1.0,
    "recall": 1.0,
    "f1-score": 1.0,
    "support": 24,
    "confused_with": {}
  },
  "Tech3g": {
    "precision": 1.0,
    "recall": 0.6923076923076923,
    "f1-score": 0.8181818181818181,
    "support": 13,
    "confused_with": {
      "throughput": 4
    }
  },
  "time": {
    "precision": 0.0,
    "recall": 0.0,
    "f1-score": 0.0,
    "support": 4,
    "confused_with": {
      "throughput": 2,
      "throughput.throughput_DL": 1
    }
  },
  "Tech4g": {
    "precision": 1.0,
    "recall": 0.7142857142857143,
    "f1-score": 0.8333333333333333,
    "support": 14,
    "confused_with": {
      "throughput": 2
    }
  },
  "Person": {
    "precision": 0.0,
    "recall": 0.0,
    "f1-score": 0.0,
    "support": 5,
    "confused_with": {}
  },
  "throughput.throughput_dyn": {
    "precision": 0.0,
    "recall": 0.0,
    "f1-score": 0.0,
    "support": 2,
    "confused_with": {
      "throughput.throughput_DL": 1,
      "throughput": 1
    }
  },
  "throughput.throughput_DL": {
    "precision": 0.25,
    "recall": 0.21428571428571427,
    "f1-score": 0.23076923076923075,
    "support": 14,
    "confused_with": {
      "throughput": 7
    }
  },
  "throughput.throughput_ca": {
    "precision": 1.0,
    "recall": 0.1,
    "f1-score": 0.18181818181818182,
    "support": 10,
    "confused_with": {
      "throughput.throughput_DL": 3,
      "throughput": 2
    }
  },
  "micro avg": {
    "precision": 0.8674698795180723,
    "recall": 0.5950413223140496,
    "f1-score": 0.7058823529411765,
    "support": 121
  },
  "macro avg": {
    "precision": 0.5590909090909091,
    "recall": 0.387459599224305,
    "f1-score": 0.43216359398177584,
    "support": 121
  },
  "weighted avg": {
    "precision": 0.7851239669421488,
    "recall": 0.5950413223140496,
    "f1-score": 0.6498911556762795,
    "support": 121
  },
  "accuracy": 0.9446009389671362
}