[
  {
    "text": "salam it's Djamila",
    "entities": [
      {
        "start": 11,
        "end": 18,
        "value": "Djamila",
        "entity": "Person"
      }
    ],
    "predicted_entities": []
  },
  {
    "text": "salut c'est Aziz",
    "entities": [
      {
        "start": 12,
        "end": 16,
        "value": "Aziz",
        "entity": "Person"
      }
    ],
    "predicted_entities": []
  },
  {
    "text": "i need to lock U900",
    "entities": [
      {
        "start": 15,
        "end": 19,
        "value": "U900",
        "entity": "Tech3g"
      }
    ],
    "predicted_entities": [
      {
        "entity": "Tech2g",
        "start": 15,
        "end": 19,
        "confidence_entity": 0.6580857038497925,
        "value": "U900",
        "extractor": "DIETClassifier"
      }
    ]
  },
  {
    "text": "can you lock u900",
    "entities": [
      {
        "start": 13,
        "end": 17,
        "value": "u900",
        "entity": "Tech3g"
      }
    ],
    "predicted_entities": [
      {
        "entity": "Tech2g",
        "start": 13,
        "end": 17,
        "confidence_entity": 0.6004506945610046,
        "value": "u900",
        "extractor": "DIETClassifier"
      }
    ]
  },
  {
    "text": "can you lock L1800",
    "entities": [
      {
        "start": 13,
        "end": 18,
        "value": "L1800",
        "entity": "Tech4g"
      }
    ],
    "predicted_entities": [
      {
        "entity": "Tech2g",
        "start": 13,
        "end": 18,
        "confidence_entity": 0.8537030220031738,
        "value": "L1800",
        "extractor": "DIETClassifier"
      }
    ]
  },
  {
    "text": "can you lock l1800",
    "entities": [
      {
        "start": 13,
        "end": 18,
        "value": "l1800",
        "entity": "Tech4g"
      }
    ],
    "predicted_entities": [
      {
        "entity": "Tech2g",
        "start": 13,
        "end": 18,
        "confidence_entity": 0.8537030220031738,
        "value": "l1800",
        "extractor": "DIETClassifier"
      }
    ]
  },
  {
    "text": "i need to unlock U900",
    "entities": [
      {
        "start": 17,
        "end": 21,
        "value": "U900",
        "entity": "Tech3g"
      }
    ],
    "predicted_entities": [
      {
        "entity": "Tech2g",
        "start": 17,
        "end": 21,
        "confidence_entity": 0.4678391218185425,
        "value": "U900",
        "extractor": "DIETClassifier"
      }
    ]
  },
  {
    "text": "unlock s3 please",
    "entities": [
      {
        "start": 7,
        "end": 9,
        "value": "s3",
        "entity": "Sector"
      }
    ],
    "predicted_entities": [
      {
        "entity": "Sector",
        "start": 7,
        "end": 9,
        "confidence_entity": 0.9973399043083191,
        "value": "S3",
        "extractor": "DIETClassifier",
        "processors": [
          "EntitySynonymMapper"
        ]
      }
    ]
  },
  {
    "text": "maxtilt all L1800",
    "entities": [
      {
        "start": 13,
        "end": 18,
        "value": "L1800",
        "entity": "Tech4g"
      }
    ],
    "predicted_entities": [
      {
        "entity": "Tech2g",
        "start": 12,
        "end": 17,
        "confidence_entity": 0.8247408270835876,
        "value": "L1800",
        "extractor": "DIETClassifier"
      }
    ]
  },
  {
    "text": "please check sector 1 locked ?",
    "entities": [
      {
        "start": 13,
        "end": 21,
        "value": "sector 1",
        "entity": "Sector"
      }
    ],
    "predicted_entities": []
  },
  {
    "text": "please check site 42105L sector 1 L2100",
    "entities": [
      {
        "start": 18,
        "end": 24,
        "value": "42105L",
        "entity": "code_site"
      },
      {
        "start": 25,
        "end": 33,
        "value": "sector 1",
        "entity": "Sector"
      },
      {
        "start": 34,
        "end": 39,
        "value": "L2100",
        "entity": "Tech4g"
      }
    ],
    "predicted_entities": [
      {
        "entity": "code_site",
        "start": 18,
        "end": 24,
        "confidence_entity": 0.9028688669204712,
        "value": "42105L",
        "extractor": "DIETClassifier"
      },
      {
        "entity": "Tech4g",
        "start": 34,
        "end": 39,
        "confidence_entity": 0.9346278309822083,
        "value": "L2100",
        "extractor": "DIETClassifier",
        "processors": [
          "EntitySynonymMapper"
        ]
      },
      {
        "entity": "code_site",
        "start": 18,
        "end": 24,
        "confidence_entity": 0.865002345009155,
        "value": "42105L",
        "extractor": "CRFEntityExtractor"
      },
      {
        "entity": "Tech4g",
        "start": 34,
        "end": 39,
        "confidence_entity": 0.8830093510304944,
        "value": "L2100",
        "extractor": "CRFEntityExtractor",
        "processors": [
          "EntitySynonymMapper"
        ]
      }
    ]
  },
  {
    "text": "5 mins please",
    "entities": [
      {
        "start": 0,
        "end": 1,
        "value": "5",
        "entity": "time"
      }
    ],
    "predicted_entities": [
      {
        "entity": "throughput",
        "start": 0,
        "end": 6,
        "confidence_entity": 0.5109856128692627,
        "role": "throughput_DL",
        "confidence_role": 0.1947837620973587,
        "value": "5 mins",
        "extractor": "DIETClassifier"
      }
    ]
  },
  {
    "text": "i need more 15mns",
    "entities": [
      {
        "start": 12,
        "end": 14,
        "value": "15",
        "entity": "time"
      }
    ],
    "predicted_entities": []
  },
  {
    "text": "Could I have 20 extra minutes to finish?",
    "entities": [
      {
        "start": 13,
        "end": 15,
        "value": "20",
        "entity": "time"
      }
    ],
    "predicted_entities": []
  },
  {
    "text": "low ca",
    "entities": [
      {
        "start": 0,
        "end": 6,
        "value": "low ca",
        "entity": "throughput",
        "role": "throughput_ca"
      }
    ],
    "predicted_entities": [
      {
        "entity": "throughput",
        "start": 0,
        "end": 6,
        "confidence_entity": 0.9333765506744385,
        "role": "throughput_DL",
        "confidence_role": 0.48304283618927,
        "value": "low ca",
        "extractor": "DIETClassifier"
      }
    ]
  },
  {
    "text": "i had throughput problem",
    "entities": [
      {
        "start": 6,
        "end": 24,
        "value": "throughput problem",
        "entity": "throughput",
        "role": "throughput_DL"
      }
    ],
    "predicted_entities": []
  },
  {
    "text": "Avr ca 75",
    "entities": [
      {
        "start": 0,
        "end": 9,
        "value": "Avr ca 75",
        "entity": "throughput",
        "role": "throughput_ca"
      }
    ],
    "predicted_entities": [
      {
        "entity": "throughput",
        "start": 0,
        "end": 3,
        "confidence_entity": 0.8128886222839355,
        "role": "throughput_ca",
        "confidence_role": 0.5736042857170105,
        "value": "Avr",
        "extractor": "DIETClassifier"
      },
      {
        "entity": "throughput",
        "start": 4,
        "end": 6,
        "confidence_entity": 0.6884831190109253,
        "role": "throughput_DL",
        "confidence_role": 0.31607112288475037,
        "value": "ca",
        "extractor": "DIETClassifier"
      },
      {
        "entity": "throughput",
        "start": 7,
        "end": 9,
        "confidence_entity": 0.730040967464447,
        "role": "throughput_dyn",
        "confidence_role": 0.5177671909332275,
        "value": "75",
        "extractor": "DIETClassifier"
      }
    ]
  },
  {
    "text": "i have a problem with ca Max throughput 35",
    "entities": [
      {
        "start": 22,
        "end": 42,
        "value": "ca Max throughput 35",
        "entity": "throughput",
        "role": "throughput_ca"
      }
    ],
    "predicted_entities": []
  },
  {
    "text": "i have problem with UL",
    "entities": [
      {
        "start": 7,
        "end": 22,
        "value": "problem with UL",
        "entity": "throughput",
        "role": "throughput_UL"
      }
    ],
    "predicted_entities": []
  },
  {
    "text": "S3 30",
    "entities": [
      {
        "start": 3,
        "end": 5,
        "value": "30",
        "entity": "throughput",
        "role": "throughput_DL"
      }
    ],
    "predicted_entities": [
      {
        "entity": "Sector",
        "start": 0,
        "end": 2,
        "confidence_entity": 0.9549241662025452,
        "role": "throughput_ca",
        "confidence_role": 0.2516939640045166,
        "value": "S3",
        "extractor": "DIETClassifier",
        "processors": [
          "EntitySynonymMapper"
        ]
      },
      {
        "entity": "throughput",
        "start": 3,
        "end": 5,
        "confidence_entity": 0.7323965430259705,
        "role": "throughput_dyn",
        "confidence_role": 0.5417358875274658,
        "value": "30",
        "extractor": "DIETClassifier"
      },
      {
        "entity": "Sector",
        "start": 0,
        "end": 2,
        "confidence_entity": 0.6309834679677226,
        "value": "S3",
        "extractor": "CRFEntityExtractor",
        "processors": [
          "EntitySynonymMapper"
        ]
      }
    ]
  },
  {
    "text": "S1 25",
    "entities": [
      {
        "start": 3,
        "end": 5,
        "value": "25",
        "entity": "throughput",
        "role": "throughput_DL"
      }
    ],
    "predicted_entities": [
      {
        "entity": "Sector",
        "start": 0,
        "end": 2,
        "confidence_entity": 0.9828734993934631,
        "value": "S1",
        "extractor": "DIETClassifier",
        "processors": [
          "EntitySynonymMapper"
        ]
      },
      {
        "entity": "throughput",
        "start": 3,
        "end": 5,
        "confidence_entity": 0.7205466032028198,
        "role": "throughput_dyn",
        "confidence_role": 0.4518708288669586,
        "value": "25",
        "extractor": "DIETClassifier"
      },
      {
        "entity": "Sector",
        "start": 0,
        "end": 2,
        "confidence_entity": 0.9846914499222507,
        "value": "S1",
        "extractor": "CRFEntityExtractor",
        "processors": [
          "EntitySynonymMapper"
        ]
      }
    ]
  },
  {
    "text": "what is the current status of all the existing technologies 2g3g 4g",
    "entities": [
      {
        "start": 60,
        "end": 62,
        "value": "2g",
        "entity": "Tech2g"
      },
      {
        "start": 62,
        "end": 64,
        "value": "3g",
        "entity": "Tech3g"
      },
      {
        "start": 65,
        "end": 67,
        "value": "4g",
        "entity": "Tech4g"
      }
    ],
    "predicted_entities": [
      {
        "entity": "Tech2g",
        "start": 63,
        "end": 64,
        "confidence_entity": 0.6858722567558289,
        "value": "g",
        "extractor": "DIETClassifier"
      },
      {
        "entity": "Tech2g",
        "start": 66,
        "end": 67,
        "confidence_entity": 0.748113214969635,
        "value": "g",
        "extractor": "DIETClassifier"
      }
    ]
  },
  {
    "text": "restart band L1800",
    "entities": [
      {
        "start": 13,
        "end": 18,
        "value": "L1800",
        "entity": "Tech4g"
      }
    ],
    "predicted_entities": [
      {
        "entity": "Tech2g",
        "start": 13,
        "end": 18,
        "confidence_entity": 0.8193222880363464,
        "value": "L1800",
        "extractor": "DIETClassifier"
      }
    ]
  },
  {
    "text": "hello i'm Abdou",
    "entities": [
      {
        "start": 10,
        "end": 15,
        "value": "Abdou",
        "entity": "Person"
      }
    ],
    "predicted_entities": []
  },
  {
    "text": "can you lock G1800",
    "entities": [
      {
        "start": 13,
        "end": 18,
        "value": "G1800",
        "entity": "Tech2g"
      }
    ],
    "predicted_entities": [
      {
        "entity": "Tech4g",
        "start": 13,
        "end": 18,
        "confidence_entity": 0.9717044830322266,
        "value": "G1800",
        "extractor": "DIETClassifier"
      }
    ]
  },
  {
    "text": "can you lock g1800",
    "entities": [
      {
        "start": 13,
        "end": 18,
        "value": "g1800",
        "entity": "Tech2g"
      }
    ],
    "predicted_entities": [
      {
        "entity": "Tech4g",
        "start": 13,
        "end": 18,
        "confidence_entity": 0.9717044830322266,
        "value": "g1800",
        "extractor": "DIETClassifier"
      }
    ]
  },
  {
    "text": "can you lock l2100",
    "entities": [
      {
        "start": 13,
        "end": 18,
        "value": "l2100",
        "entity": "Tech4g"
      }
    ],
    "predicted_entities": [
      {
        "entity": "Tech4g",
        "start": 13,
        "end": 18,
        "confidence_entity": 0.987773597240448,
        "value": "L2100",
        "extractor": "DIETClassifier",
        "processors": [
          "EntitySynonymMapper"
        ]
      }
    ]
  },
  {
    "text": "lock s3 please",
    "entities": [
      {
        "start": 5,
        "end": 7,
        "value": "s3",
        "entity": "Sector"
      }
    ],
    "predicted_entities": [
      {
        "entity": "Sector",
        "start": 5,
        "end": 7,
        "confidence_entity": 0.9510937929153442,
        "value": "S3",
        "extractor": "DIETClassifier",
        "processors": [
          "EntitySynonymMapper"
        ]
      }
    ]
  },
  {
    "text": "conditions of Rsrp and Rsrq aren't good",
    "entities": [
      {
        "start": 14,
        "end": 18,
        "value": "Rsrp",
        "entity": "conditions"
      },
      {
        "start": 23,
        "end": 27,
        "value": "Rsrq",
        "entity": "conditions"
      }
    ],
    "predicted_entities": []
  },
  {
    "text": "bad RSRP value detected",
    "entities": [
      {
        "start": 4,
        "end": 8,
        "value": "RSRP",
        "entity": "conditions"
      }
    ],
    "predicted_entities": []
  },
  {
    "text": "can't connect to S2 and L2100",
    "entities": [
      {
        "start": 17,
        "end": 19,
        "value": "S2",
        "entity": "Sector"
      },
      {
        "start": 24,
        "end": 29,
        "value": "L2100",
        "entity": "Tech4g"
      }
    ],
    "predicted_entities": [
      {
        "entity": "Sector",
        "start": 17,
        "end": 19,
        "confidence_entity": 0.9644702076911926,
        "value": "S2",
        "extractor": "DIETClassifier",
        "processors": [
          "EntitySynonymMapper"
        ]
      },
      {
        "entity": "Tech4g",
        "start": 24,
        "end": 29,
        "confidence_entity": 0.9931451082229614,
        "value": "L2100",
        "extractor": "DIETClassifier",
        "processors": [
          "EntitySynonymMapper"
        ]
      },
      {
        "entity": "Tech4g",
        "start": 24,
        "end": 29,
        "confidence_entity": 0.7754172392383109,
        "value": "L2100",
        "extractor": "CRFEntityExtractor",
        "processors": [
          "EntitySynonymMapper"
        ]
      }
    ]
  },
  {
    "text": "is L2100 locked ?",
    "entities": [
      {
        "start": 3,
        "end": 8,
        "value": "L2100",
        "entity": "Tech3g"
      }
    ],
    "predicted_entities": [
      {
        "entity": "Tech4g",
        "start": 3,
        "end": 8,
        "confidence_entity": 0.9915077686309814,
        "value": "L2100",
        "extractor": "DIETClassifier",
        "processors": [
          "EntitySynonymMapper"
        ]
      }
    ]
  },
  {
    "text": "s1 ?",
    "entities": [
      {
        "start": 0,
        "end": 2,
        "value": "s1",
        "entity": "Sector"
      }
    ],
    "predicted_entities": []
  },
  {
    "text": "can you confirm sector 2 ?",
    "entities": [
      {
        "start": 16,
        "end": 24,
        "value": "sector 2",
        "entity": "Sector"
      }
    ],
    "predicted_entities": [
      {
        "entity": "throughput",
        "start": 23,
        "end": 24,
        "confidence_entity": 0.2714495360851288,
        "role": "throughput_ca",
        "confidence_role": 0.43848878145217896,
        "value": "2",
        "extractor": "DIETClassifier"
      }
    ]
  },
  {
    "text": "I would like a time extension of a 10 minutes",
    "entities": [
      {
        "start": 35,
        "end": 37,
        "value": "10",
        "entity": "time"
      }
    ],
    "predicted_entities": [
      {
        "entity": "time",
        "start": 35,
        "end": 37,
        "confidence_entity": 0.33115115761756897,
        "value": "10",
        "extractor": "DIETClassifier"
      }
    ]
  },
  {
    "text": "Just wanted to inform you that I'm at 34025U, planning to test the 3 sectors present there",
    "entities": [
      {
        "start": 38,
        "end": 44,
        "value": "34025U",
        "entity": "code_site"
      }
    ],
    "predicted_entities": [
      {
        "entity": "code_site",
        "start": 38,
        "end": 44,
        "confidence_entity": 0.9383066296577454,
        "value": "34025U",
        "extractor": "DIETClassifier"
      },
      {
        "entity": "Sector",
        "start": 67,
        "end": 68,
        "confidence_entity": 0.2562559247016907,
        "value": "3",
        "extractor": "DIETClassifier"
      }
    ]
  },
  {
    "text": "25 Mb/s",
    "entities": [
      {
        "start": 0,
        "end": 7,
        "value": "25 Mb/s",
        "entity": "throughput",
        "role": "throughput_DL"
      }
    ],
    "predicted_entities": [
      {
        "entity": "time",
        "start": 0,
        "end": 2,
        "confidence_entity": 0.49128416180610657,
        "role": "throughput_DL",
        "confidence_role": 0.41417884826660156,
        "value": "25",
        "extractor": "DIETClassifier",
        "processors": [
          "EntitySynonymMapper"
        ]
      }
    ]
  },
  {
    "text": "70Mb/s",
    "entities": [
      {
        "start": 0,
        "end": 6,
        "value": "70Mb/s",
        "entity": "throughput",
        "role": "throughput_DL"
      }
    ],
    "predicted_entities": []
  },
  {
    "text": "I get 153 mb avr",
    "entities": [
      {
        "start": 6,
        "end": 16,
        "value": "153 mb avr",
        "entity": "throughput",
        "role": "throughput_DL"
      }
    ],
    "predicted_entities": [
      {
        "entity": "throughput",
        "start": 6,
        "end": 9,
        "confidence_entity": 0.33849167823791504,
        "role": "throughput_DL",
        "confidence_role": 0.48036128282546997,
        "value": "153",
        "extractor": "DIETClassifier"
      },
      {
        "entity": "throughput",
        "start": 10,
        "end": 12,
        "confidence_entity": 0.6448451280593872,
        "role": "throughput_ca",
        "confidence_role": 0.44754672050476074,
        "value": "mb",
        "extractor": "DIETClassifier"
      },
      {
        "entity": "throughput",
        "start": 13,
        "end": 16,
        "confidence_entity": 0.9279949069023132,
        "role": "throughput_ca",
        "confidence_role": 0.9614810943603516,
        "value": "avr",
        "extractor": "DIETClassifier"
      }
    ]
  },
  {
    "text": "Ca avr 60 mb",
    "entities": [
      {
        "start": 0,
        "end": 12,
        "value": "Ca avr 60 mb",
        "entity": "throughput",
        "role": "throughput_ca"
      }
    ],
    "predicted_entities": [
      {
        "entity": "throughput",
        "start": 0,
        "end": 2,
        "confidence_entity": 0.822677731513977,
        "role": "throughput_ca",
        "confidence_role": 0.9202074408531189,
        "value": "Ca",
        "extractor": "DIETClassifier"
      },
      {
        "entity": "throughput",
        "start": 3,
        "end": 6,
        "confidence_entity": 0.9554320573806763,
        "role": "throughput_ca",
        "confidence_role": 0.9492934346199036,
        "value": "avr",
        "extractor": "DIETClassifier"
      },
      {
        "entity": "throughput",
        "start": 7,
        "end": 9,
        "confidence_entity": 0.404218465089798,
        "role": "throughput_DL",
        "confidence_role": 0.6818727850914001,
        "value": "60",
        "extractor": "DIETClassifier"
      },
      {
        "entity": "throughput",
        "start": 10,
        "end": 12,
        "confidence_entity": 0.9269664883613586,
        "role": "throughput_ca",
        "confidence_role": 0.6565051078796387,
        "value": "mb",
        "extractor": "DIETClassifier"
      }
    ]
  },
  {
    "text": "Low throughput DL",
    "entities": [
      {
        "start": 0,
        "end": 17,
        "value": "Low throughput DL",
        "entity": "throughput",
        "role": "throughput_DL"
      }
    ],
    "predicted_entities": [
      {
        "entity": "throughput",
        "start": 15,
        "end": 17,
        "confidence_entity": 0.8918859362602234,
        "role": "throughput_DL",
        "confidence_role": 0.9463292360305786,
        "value": "DL",
        "extractor": "DIETClassifier"
      }
    ]
  },
  {
    "text": "Low throughput UL",
    "entities": [
      {
        "start": 0,
        "end": 17,
        "value": "Low throughput UL",
        "entity": "throughput",
        "role": "throughput_UL"
      }
    ],
    "predicted_entities": [
      {
        "entity": "throughput",
        "start": 0,
        "end": 3,
        "confidence_entity": 0.7788815498352051,
        "role": "throughput_ca",
        "confidence_role": 0.9070940613746643,
        "value": "Low",
        "extractor": "DIETClassifier"
      },
      {
        "entity": "throughput",
        "start": 4,
        "end": 17,
        "confidence_entity": 0.4303792417049408,
        "role": "throughput_UL",
        "confidence_role": 0.65,
        "value": "throughput UL",
        "extractor": "DIETClassifier"
      },
      {
        "entity": "throughput",
        "start": 15,
        "end": 17,
        "confidence_entity": 0.5068860272525875,
        "value": "UL",
        "extractor": "CRFEntityExtractor"
      }
    ]
  },
  {
    "text": "DL bad sector 1",
    "entities": [
      {
        "start": 0,
        "end": 6,
        "value": "DL bad",
        "entity": "throughput",
        "role": "throughput_DL"
      }
    ],
    "predicted_entities": [
      {
        "entity": "throughput",
        "start": 0,
        "end": 6,
        "confidence_entity": 0.9825781583786011,
        "role": "throughput_DL",
        "confidence_role": 0.9679380059242249,
        "value": "DL bad",
        "extractor": "DIETClassifier",
        "processors": [
          "EntitySynonymMapper"
        ]
      },
      {
        "entity": "Sector",
        "start": 7,
        "end": 13,
        "confidence_entity": 0.5835737586021423,
        "value": "sector",
        "extractor": "DIETClassifier"
      },
      {
        "entity": "Sector",
        "start": 14,
        "end": 15,
        "confidence_entity": 0.54,
        "role": "throughput_ca",
        "confidence_role": 0.6680721640586853,
        "value": "1",
        "extractor": "DIETClassifier"
      },
      {
        "entity": "throughput",
        "start": 0,
        "end": 6,
        "confidence_entity": 0.8897318164002748,
        "role": "throughput_DL",
        "confidence_role": 0.9523836608669478,
        "value": "DL bad",
        "extractor": "CRFEntityExtractor",
        "processors": [
          "EntitySynonymMapper"
        ]
      },
      {
        "entity": "Sector",
        "start": 7,
        "end": 15,
        "confidence_entity": 0.9107908651167094,
        "value": "sector 1",
        "extractor": "CRFEntityExtractor",
        "processors": [
          "EntitySynonymMapper"
        ]
      }
    ]
  },
  {
    "text": "Dynamic DL 30",
    "entities": [
      {
        "start": 0,
        "end": 13,
        "value": "Dynamic DL 30",
        "entity": "throughput",
        "role": "throughput_dyn"
      }
    ],
    "predicted_entities": [
      {
        "entity": "throughput",
        "start": 8,
        "end": 10,
        "confidence_entity": 0.9686847925186157,
        "role": "throughput_DL",
        "confidence_role": 0.961225688457489,
        "value": "DL",
        "extractor": "DIETClassifier"
      },
      {
        "entity": "throughput",
        "start": 11,
        "end": 13,
        "confidence_entity": 0.46911540627479553,
        "role": "throughput_DL",
        "confidence_role": 0.6927582025527954,
        "value": "30",
        "extractor": "DIETClassifier",
        "processors": [
          "EntitySynonymMapper"
        ]
      },
      {
        "entity": "throughput",
        "start": 11,
        "end": 13,
        "confidence_entity": 0.8436712790291091,
        "role": "throughput_DL",
        "confidence_role": 0.7053616899155521,
        "value": "30",
        "extractor": "CRFEntityExtractor",
        "processors": [
          "EntitySynonymMapper"
        ]
      }
    ]
  },
  {
    "text": "UL good results",
    "entities": [
      {
        "start": 0,
        "end": 15,
        "value": "UL good results",
        "entity": "throughput",
        "role": "throughput_UL"
      }
    ],
    "predicted_entities": [
      {
        "entity": "throughput",
        "start": 0,
        "end": 2,
        "confidence_entity": 0.41058510541915894,
        "role": "throughput_UL",
        "confidence_role": 0.5581499338150024,
        "value": "UL",
        "extractor": "DIETClassifier"
      }
    ]
  },
  {
    "text": "Average 11",
    "entities": [
      {
        "start": 0,
        "end": 10,
        "value": "Average 11",
        "entity": "throughput",
        "role": "throughput_DL"
      }
    ],
    "predicted_entities": [
      {
        "entity": "throughput",
        "start": 8,
        "end": 10,
        "confidence_entity": 0.46670833230018616,
        "role": "throughput_DL",
        "confidence_role": 0.5352550148963928,
        "value": "11",
        "extractor": "DIETClassifier"
      }
    ]
  },
  {
    "text": "Dynamic 20",
    "entities": [
      {
        "start": 0,
        "end": 10,
        "value": "Dynamic 20",
        "entity": "throughput",
        "role": "throughput_dyn"
      }
    ],
    "predicted_entities": [
      {
        "entity": "throughput",
        "start": 8,
        "end": 10,
        "confidence_entity": 0.4875764846801758,
        "role": "throughput_DL",
        "confidence_role": 0.5613738298416138,
        "value": "20",
        "extractor": "DIETClassifier",
        "processors": [
          "EntitySynonymMapper"
        ]
      },
      {
        "entity": "time",
        "start": 8,
        "end": 10,
        "confidence_entity": 0.5425830814598688,
        "value": "20",
        "extractor": "CRFEntityExtractor",
        "processors": [
          "EntitySynonymMapper"
        ]
      }
    ]
  },
  {
    "text": "Low Thrghpt DL average 50 Mbs in both band",
    "entities": [
      {
        "start": 12,
        "end": 29,
        "value": "DL average 50 Mbs",
        "entity": "throughput",
        "role": "throughput_DL"
      }
    ],
    "predicted_entities": [
      {
        "entity": "throughput",
        "start": 12,
        "end": 14,
        "confidence_entity": 0.9827215075492859,
        "role": "throughput_DL",
        "confidence_role": 0.9785841703414917,
        "value": "DL",
        "extractor": "DIETClassifier"
      },
      {
        "entity": "throughput",
        "start": 23,
        "end": 25,
        "confidence_entity": 0.29399994015693665,
        "role": "throughput_DL",
        "confidence_role": 0.47102999687194824,
        "value": "50",
        "extractor": "DIETClassifier"
      },
      {
        "entity": "throughput",
        "start": 26,
        "end": 29,
        "confidence_entity": 0.4127812683582306,
        "role": "throughput_ca",
        "confidence_role": 0.3800683915615082,
        "value": "Mbs",
        "extractor": "DIETClassifier"
      }
    ]
  },
  {
    "text": "good throughput ca",
    "entities": [],
    "predicted_entities": [
      {
        "entity": "throughput",
        "start": 5,
        "end": 15,
        "confidence_entity": 0.6074827575923757,
        "value": "throughput",
        "extractor": "CRFEntityExtractor"
      },
      {
        "entity": "throughput",
        "start": 16,
        "end": 18,
        "confidence_entity": 0.7172981421184471,
        "role": "throughput_ca",
        "confidence_role": 0.4847298897522111,
        "value": "ca",
        "extractor": "CRFEntityExtractor"
      }
    ]
  },
  {
    "text": "check the status of the network 2G for me",
    "entities": [
      {
        "start": 32,
        "end": 34,
        "value": "2G",
        "entity": "Tech2g"
      }
    ],
    "predicted_entities": [
      {
        "entity": "Sector",
        "start": 32,
        "end": 33,
        "confidence_entity": 0.33228394389152527,
        "value": "2",
        "extractor": "DIETClassifier"
      }
    ]
  },
  {
    "text": "please to restart the sector s1",
    "entities": [
      {
        "start": 29,
        "end": 31,
        "value": "s1",
        "entity": "Sector"
      }
    ],
    "predicted_entities": [
      {
        "entity": "Sector",
        "start": 29,
        "end": 31,
        "confidence_entity": 0.996192216873169,
        "value": "S1",
        "extractor": "DIETClassifier",
        "processors": [
          "EntitySynonymMapper"
        ]
      }
    ]
  },
  {
    "text": "hey c'est Amin",
    "entities": [
      {
        "start": 10,
        "end": 14,
        "value": "Amin",
        "entity": "Person"
      }
    ],
    "predicted_entities": [
      {
        "entity": "Person",
        "start": 10,
        "end": 14,
        "confidence_entity": 0.9931110143661499,
        "value": "Amin",
        "extractor": "DIETClassifier",
        "processors": [
          "EntitySynonymMapper"
        ]
      }
    ]
  },
  {
    "text": "bonjour je suis Abdou",
    "entities": [
      {
        "start": 16,
        "end": 21,
        "value": "Abdou",
        "entity": "Person"
      }
    ],
    "predicted_entities": []
  },
  {
    "text": "salut c'est Aziz",
    "entities": [],
    "predicted_entities": [
      {
        "entity": "Person",
        "start": 12,
        "end": 16,
        "confidence_entity": 0.9954978227615356,
        "value": "Aziz",
        "extractor": "DIETClassifier",
        "processors": [
          "EntitySynonymMapper"
        ]
      },
      {
        "entity": "Person",
        "start": 12,
        "end": 16,
        "confidence_entity": 0.707861314467608,
        "value": "Aziz",
        "extractor": "CRFEntityExtractor",
        "processors": [
          "EntitySynonymMapper"
        ]
      }
    ]
  }
]